{
  "main.css": "static/css/main.d90b01d7.css",
  "main.css.map": "static/css/main.d90b01d7.css.map",
  "main.js": "static/js/main.07f6a907.js",
  "main.js.map": "static/js/main.07f6a907.js.map",
  "static\\media\\Eurostat_logo_v2.png": "static/media/Eurostat_logo_v2.a3baa19c.png"
}